\relax 
\providecommand{\transparent@use}[1]{}
\@writefile{lof}{\contentsline {figure}{\numberline {1}{\ignorespaces An LNL Block Oriented Model Structure}}{1}\protected@file@percent }
\newlabel{fig:lnlblock}{{1}{1}}
